\relax 
\providecommand\hyper@newdestlabel[2]{}
\providecommand\HyperFirstAtBeginDocument{\AtBeginDocument}
\HyperFirstAtBeginDocument{\ifx\hyper@anchor\@undefined
\global\let\oldcontentsline\contentsline
\gdef\contentsline#1#2#3#4{\oldcontentsline{#1}{#2}{#3}}
\global\let\oldnewlabel\newlabel
\gdef\newlabel#1#2{\newlabelxx{#1}#2}
\gdef\newlabelxx#1#2#3#4#5#6{\oldnewlabel{#1}{{#2}{#3}}}
\AtEndDocument{\ifx\hyper@anchor\@undefined
\let\contentsline\oldcontentsline
\let\newlabel\oldnewlabel
\fi}
\fi}
\global\let\hyper@last\relax 
\gdef\HyperFirstAtBeginDocument#1{#1}
\providecommand\HyField@AuxAddToFields[1]{}
\providecommand\HyField@AuxAddToCoFields[2]{}
\providecommand {\FN@pp@footnotehinttrue }{}
\providecommand {\FN@pp@footnote@aux }[2]{}
\FN@pp@footnotehinttrue 
\@writefile{toc}{\contentsline {section}{\numberline {1.}Introduction}{1}{section.1}}
\@writefile{toc}{\contentsline {section}{\numberline {2.}Nonlinear Equations of Motion}{1}{section.2}}
\newlabel{EOMsimple}{{1}{1}{Nonlinear Equations of Motion}{equation.2.1}{}}
\newlabel{eq:state}{{2}{1}{Nonlinear Equations of Motion}{equation.2.2}{}}
\citation{Smythe:1968}
\newlabel{linearizedstate}{{3}{2}{Nonlinear Equations of Motion}{equation.2.3}{}}
\newlabel{eq:statespaceform}{{4}{2}{Nonlinear Equations of Motion}{equation.2.4}{}}
\@writefile{toc}{\contentsline {subsection}{\numberline {2.1}Coulomb Acceleration}{2}{subsection.2.1}}
\newlabel{eq:Cforce}{{5}{2}{Coulomb Acceleration}{equation.2.5}{}}
\newlabel{eq:Voltage}{{6}{2}{Coulomb Acceleration}{equation.2.6}{}}
\newlabel{eq:ElastMat}{{7}{2}{Coulomb Acceleration}{equation.2.7}{}}
\newlabel{eq:invElast}{{9}{2}{Coulomb Acceleration}{equation.2.9}{}}
\newlabel{eq:QF}{{10}{2}{Coulomb Acceleration}{equation.2.10}{}}
\newlabel{eq:EL}{{11}{2}{Coulomb Acceleration}{equation.2.11}{}}
\newlabel{CForce_Full}{{12}{2}{Coulomb Acceleration}{equation.2.12}{}}
\@writefile{toc}{\contentsline {section}{\numberline {3.}Linearization of Equations of Motion}{2}{section.3}}
\@writefile{toc}{\contentsline {subsection}{\numberline {3.1}Coulomb Acceleration Linearization with Respect to State Variables}{2}{subsection.3.1}}
\newlabel{eq:dFcdX}{{13}{2}{Coulomb Acceleration Linearization with Respect to State Variables}{subsection.3.1}{}}
\newlabel{eq:dCap}{{14}{2}{Coulomb Acceleration Linearization with Respect to State Variables}{equation.3.14}{}}
\bibstyle{unsrt}
\bibdata{references}
\@writefile{lof}{\contentsline {figure}{\numberline {1}{\ignorespaces Title of the figure, left justified, subsequent text indented. Place figures at the top or bottom of a column wherever possible, as close as possible to the first references to them in the manuscript. Restrict them to single-column width unless this would make them illegible.\relax }}{3}{figure.caption.1}}
\providecommand*\caption@xref[2]{\@setref\relax\@undefined{#1}}
\newlabel{fig:1}{{1}{3}{Title of the figure, left justified, subsequent text indented. Place figures at the top or bottom of a column wherever possible, as close as possible to the first references to them in the manuscript. Restrict them to single-column width unless this would make them illegible.\relax }{figure.caption.1}{}}
\@writefile{toc}{\contentsline {subsection}{\numberline {3.2}Coulomb Acceleration Linearization with Respect to Control Variables}{3}{subsection.3.2}}
\@writefile{toc}{\contentsline {section}{\numberline {4.}Results \& Discussion}{3}{section.4}}
\@writefile{toc}{\contentsline {section}{\numberline {5.}Conclusion}{3}{section.5}}
\@writefile{toc}{\contentsline {subsection}{\numberline {5.1}C}{3}{subsection.5.1}}
\FN@pp@footnotehinttrue 
\newlabel{LastPage}{{}{3}{}{page.3}{}}
\xdef\lastpage@lastpage{3}
\xdef\lastpage@lastpageHy{3}
